Семинар 4. Кластерный анализ
…
## Observations: 112
## Variables: 3
## $ indicator <chr> "Валовой внутренний продукт", "оплата труда наемных ...
## $ date      <chr> "1 квартал 2011", "1 квартал 2011", "1 квартал 2011"...
## $ quantity  <dbl> 13028.844, 6055.775, 1807.421, 5165.648, 14481.142, ...

Создадим типичную длинную таблицу! Например, для каждого качества огранки cut и цвета color посчитаем медиану цены:

diamonds_med <- group_by(diamonds, cut, color) %>%
  summarise(med_price = median(price))
diamonds_med

## # A tibble: 35 x 3
## # Groups:   cut [?]
##    cut   color med_price
##    <ord> <ord>     <dbl>
##  1 Fair  D         3730 
##  2 Fair  E         2956 
##  3 Fair  F         3035 
##  4 Fair  G         3057 
##  5 Fair  H         3816 
##  6 Fair  I         3246 
##  7 Fair  J         3302 
##  8 Good  D         2728.
##  9 Good  E         2420 
## 10 Good  F         2647 
## # ... with 25 more rows
…
